[
    {
        "id":1,
        "name":"Acevedo Manríquez María Mireya",
        "difficultyLevel":4,
        "gymId":1,
        "afiliationDate":"15/02/2018"
    },
    {
        "id":2,
        "name":"Banda Jiménez Francisco",
        "difficultyLevel":2,
        "gymId":1,
        "afiliationDate":"01/02/2018"
    },
    {
        "id":3,
        "name":"Casas Beltrán Jesús Xavier",
        "difficultyLevel":6,
        "gymId":1,
        "afiliationDate":"15/02/2015"
    },
    {
        "id":4,
        "name":"Dávila Montero Claudia Valeria",
        "difficultyLevel":1,
        "gymId":2,
        "afiliationDate":"10/02/2018"
    },
    {
        "id":5,
        "name":"Castañeda Niebla Miguel Ángel",
        "difficultyLevel":5,
        "gymId":2,
        "afiliationDate":"15/05/2017"
    },
    {
        "id":6,
        "name":"Fernández del Río Ángel de Jesús",
        "difficultyLevel":6,
        "gymId":2,
        "afiliationDate":"15/02/2016"
    },
    {
        "id":7,
        "name":"Estrada Torres Gilberto",
        "difficultyLevel":3,
        "gymId":3,
        "afiliationDate":"25/06/2017"
    },
    {
        "id":8,
        "name":"Franco Mota Ernesto",
        "difficultyLevel":2,
        "gymId":3,
        "afiliationDate":"01/10/2017"
    },
    {
        "id":9,
        "name":"García Cancino Mario Francisco",
        "difficultyLevel":3,
        "gymId":3,
        "afiliationDate":"22/12/2016"
    },
    {
        "id":10,
        "name":"García López José Alfonso",
        "difficultyLevel":3,
        "gymId":4,
        "afiliationDate":"23/02/2017"
    },
    {
        "id":11,
        "name":"García Chávez Ricardo",
        "difficultyLevel":6,
        "gymId":4,
        "afiliationDate":"15/06/2015"
    },
    {
        "id":12,
        "name":"Durán Suárez Pedro",
        "difficultyLevel":1,
        "gymId":4,
        "afiliationDate":"15/02/2018"
    },
    {
        "id":13,
        "name":"Cázares Castro Nicolás",
        "difficultyLevel":5,
        "gymId":5,
        "afiliationDate":"18/02/2016"
    },
    {
        "id":14,
        "name":"Briseño Arias Abel",
        "difficultyLevel":7,
        "gymId":5,
        "afiliationDate":"15/02/2015"
    },
    {
        "id":15,
        "name":"Alcántar Camacho José Israel",
        "difficultyLevel":4,
        "gymId":5,
        "afiliationDate":"30/11/2016"
    },
    {
        "id":16,
        "name":"Dávila Montero Claudia Valeria",
        "difficultyLevel":1,
        "gymId":5,
        "afiliationDate":"10/02/2018"
    },
    {
        "id":17,
        "name":"Castañeda Niebla Miguel Ángel",
        "difficultyLevel":5,
        "gymId":5,
        "afiliationDate":"15/05/2017"
    }
]